---
http_interactions:
- request:
    method: get
    uri: https://api.flickr.com/services/rest/?api_key=<flickr_api_key>&content_type=1&extras=url_c&format=json&method=flickr.photos.search&nojsoncallback=1&per_page=10&text=bermuda
    body:
      encoding: US-ASCII
      string: ''
    headers:
      Content-Type:
      - application/json
      User-Agent:
      - Faraday v2.6.0
      Accept-Encoding:
      - gzip;q=1.0,deflate;q=0.6,identity;q=0.3
      Accept:
      - "*/*"
  response:
    status:
      code: 200
      message: OK
    headers:
      Content-Type:
      - application/json
      Transfer-Encoding:
      - chunked
      Connection:
      - keep-alive
      Vary:
      - Accept-Encoding
      Date:
      - Tue, 15 Nov 2022 14:36:40 GMT
      Server:
      - Apache/2.4.54 (Ubuntu)
      Set-Cookie:
      - ccc=%7B%22needsConsent%22%3Afalse%2C%22managed%22%3A0%2C%22changed%22%3A0%2C%22info%22%3A%7B%22cookieBlock%22%3A%7B%22level%22%3A0%2C%22blockRan%22%3A0%7D%7D%7D;
        expires=Thu, 15-Dec-2022 14:36:40 GMT; Max-Age=2592000; path=/; domain=.flickr.com
      X-Content-Type-Options:
      - nosniff
      X-Frame-Options:
      - SAMEORIGIN
      X-Cache:
      - Miss from cloudfront
      Via:
      - 1.1 eb2e4893b47f0d155cd51b82c2a8d596.cloudfront.net (CloudFront)
      X-Amz-Cf-Pop:
      - JFK50-P5
      X-Amz-Cf-Id:
      - 4BuShRocT6Gi9bR8T8HqzUEeU6di_lcgVRz_eOszWm7J0IqB_q8iLw==
    body:
      encoding: ASCII-8BIT
      string: '{"photos":{"page":1,"pages":35989,"perpage":10,"total":359882,"photo":[{"id":"52501549281","owner":"130396812@N06","secret":"d3ac11129a","server":"65535","farm":66,"title":"Hibiscus
        in St. George Bermuda","ispublic":1,"isfriend":0,"isfamily":0,"url_c":"https:\/\/live.staticflickr.com\/65535\/52501549281_d3ac11129a_c.jpg","height_c":800,"width_c":600},{"id":"52499632686","owner":"90995431@N06","secret":"ff1b73a923","server":"65535","farm":66,"title":"Gibbs
        lighthouse Bermuda","ispublic":1,"isfriend":0,"isfamily":0,"url_c":"https:\/\/live.staticflickr.com\/65535\/52499632686_ff1b73a923_c.jpg","height_c":800,"width_c":533},{"id":"52499552924","owner":"170134538@N03","secret":"5d79722dc2","server":"65535","farm":66,"title":"VP-BVG
        BD700-1A10 Global Express XRS cn 9193 MVA Aviation 221113 Schiphol 1001","ispublic":1,"isfriend":0,"isfamily":0,"url_c":"https:\/\/live.staticflickr.com\/65535\/52499552924_5d79722dc2_c.jpg","height_c":539,"width_c":800},{"id":"52499550229","owner":"136435562@N08","secret":"600c70bbb4","server":"65535","farm":66,"title":"VP-BVG
        BD700-1A10 Global Express XRS cn 9193 MVA Aviation 221113 Schiphol 1001","ispublic":1,"isfriend":0,"isfamily":0,"url_c":"https:\/\/live.staticflickr.com\/65535\/52499550229_600c70bbb4_c.jpg","height_c":539,"width_c":800},{"id":"52498894621","owner":"124548301@N05","secret":"425c107443","server":"65535","farm":66,"title":"Bermuda
        - St. George''s","ispublic":1,"isfriend":0,"isfamily":0,"url_c":"https:\/\/live.staticflickr.com\/65535\/52498894621_425c107443_c.jpg","height_c":526,"width_c":800},{"id":"52499182254","owner":"124548301@N05","secret":"e150673697","server":"65535","farm":66,"title":"Flag_of_Bermuda.svg","ispublic":1,"isfriend":0,"isfamily":0,"url_c":"https:\/\/live.staticflickr.com\/65535\/52499182254_e150673697_c.jpg","height_c":400,"width_c":800},{"id":"52498804453","owner":"146117376@N03","secret":"5fdd926461","server":"65535","farm":66,"title":"\ud83c\udf40
        \u1548o\u2cfdt #104","ispublic":1,"isfriend":0,"isfamily":0,"url_c":"https:\/\/live.staticflickr.com\/65535\/52498804453_5fdd926461_c.jpg","height_c":526,"width_c":800},{"id":"52497886216","owner":"90995431@N06","secret":"b51787c12b","server":"65535","farm":66,"title":"The
        good life","ispublic":1,"isfriend":0,"isfamily":0,"url_c":"https:\/\/live.staticflickr.com\/65535\/52497886216_b51787c12b_c.jpg","height_c":533,"width_c":800},{"id":"52496671472","owner":"150856173@N06","secret":"7d47f73c04","server":"65535","farm":66,"title":"Grey
        heron (Ardea cinerea)-0785","ispublic":1,"isfriend":0,"isfamily":0,"url_c":"https:\/\/live.staticflickr.com\/65535\/52496671472_7d47f73c04_c.jpg","height_c":533,"width_c":800},{"id":"52495617412","owner":"135481234@N06","secret":"7b2a0842be","server":"65535","farm":66,"title":"WMR
        172335 @ Coventry railway station","ispublic":1,"isfriend":0,"isfamily":0,"url_c":"https:\/\/live.staticflickr.com\/65535\/52495617412_7b2a0842be_c.jpg","height_c":535,"width_c":800}]},"stat":"ok"}'
  recorded_at: Tue, 15 Nov 2022 14:36:40 GMT
recorded_with: VCR 6.1.0
