---
http_interactions:
- request:
    method: get
    uri: https://www.googleapis.com/youtube/v3/search?channelId=UCluQ5yInbeAkkeCndNnUhpw&fields=items(id/videoId,snippet/title)&key=<youtube_api_key>&maxResults=1&part=snippet&q=indonesia
    body:
      encoding: US-ASCII
      string: ''
    headers:
      User-Agent:
      - Faraday v2.6.0
      Accept-Encoding:
      - gzip;q=1.0,deflate;q=0.6,identity;q=0.3
      Accept:
      - "*/*"
  response:
    status:
      code: 200
      message: OK
    headers:
      Content-Type:
      - application/json; charset=UTF-8
      Vary:
      - Origin
      - Referer
      - X-Origin
      Date:
      - Tue, 15 Nov 2022 15:17:16 GMT
      Server:
      - scaffolding on HTTPServer2
      Cache-Control:
      - private
      X-Xss-Protection:
      - '0'
      X-Frame-Options:
      - SAMEORIGIN
      X-Content-Type-Options:
      - nosniff
      Alt-Svc:
      - h3=":443"; ma=2592000,h3-29=":443"; ma=2592000,h3-Q050=":443"; ma=2592000,h3-Q046=":443";
        ma=2592000,h3-Q043=":443"; ma=2592000,quic=":443"; ma=2592000; v="46,43"
      Transfer-Encoding:
      - chunked
    body:
      encoding: ASCII-8BIT
      string: |
        {
          "items": [
            {
              "id": {
                "videoId": "U2YMewwotiQ"
              },
              "snippet": {
                "title": "A Super Quick History of Indonesia"
              }
            }
          ]
        }
  recorded_at: Tue, 15 Nov 2022 15:17:16 GMT
- request:
    method: get
    uri: https://api.flickr.com/services/rest/?api_key=<flickr_api_key>&content_type=1&extras=url_c&format=json&method=flickr.photos.search&nojsoncallback=1&per_page=10&text=indonesia
    body:
      encoding: US-ASCII
      string: ''
    headers:
      Content-Type:
      - application/json
      User-Agent:
      - Faraday v2.6.0
      Accept-Encoding:
      - gzip;q=1.0,deflate;q=0.6,identity;q=0.3
      Accept:
      - "*/*"
  response:
    status:
      code: 200
      message: OK
    headers:
      Content-Type:
      - application/json
      Transfer-Encoding:
      - chunked
      Connection:
      - keep-alive
      Vary:
      - Accept-Encoding
      Date:
      - Tue, 15 Nov 2022 15:17:17 GMT
      Server:
      - Apache/2.4.54 (Ubuntu)
      Set-Cookie:
      - ccc=%7B%22needsConsent%22%3Afalse%2C%22managed%22%3A0%2C%22changed%22%3A0%2C%22info%22%3A%7B%22cookieBlock%22%3A%7B%22level%22%3A0%2C%22blockRan%22%3A0%7D%7D%7D;
        expires=Thu, 15-Dec-2022 15:17:17 GMT; Max-Age=2592000; path=/; domain=.flickr.com
      X-Content-Type-Options:
      - nosniff
      X-Frame-Options:
      - SAMEORIGIN
      X-Cache:
      - Miss from cloudfront
      Via:
      - 1.1 38bc9c97daf30f968ccac44ef89e14e0.cloudfront.net (CloudFront)
      X-Amz-Cf-Pop:
      - JFK50-P5
      X-Amz-Cf-Id:
      - cX7fW9BYWjx1iJTRhPSoymrP-atRBQ3QIO0hXCU0U-X3wVhzCoyKxQ==
    body:
      encoding: ASCII-8BIT
      string: '{"photos":{"page":1,"pages":37389,"perpage":10,"total":373882,"photo":[{"id":"52501642876","owner":"23921613@N05","secret":"edd2f8e3fa","server":"65535","farm":66,"title":".:Special
        Train for the 155th Anniversary of the First Trip of Indonesian Railways:.","ispublic":1,"isfriend":0,"isfamily":0,"url_c":"https:\/\/live.staticflickr.com\/65535\/52501642876_edd2f8e3fa_c.jpg","height_c":800,"width_c":640},{"id":"52501147702","owner":"196936479@N02","secret":"db115c7798","server":"65535","farm":66,"title":"BERKOMPETEN,
        Call\/Wa 0858-7795-9720, Digital Marketing Agency Cipayung SSP Digital Advertising","ispublic":1,"isfriend":0,"isfamily":0,"url_c":"https:\/\/live.staticflickr.com\/65535\/52501147702_db115c7798_c.jpg","height_c":800,"width_c":800},{"id":"52502187243","owner":"196936479@N02","secret":"c192a558fe","server":"65535","farm":66,"title":"BERKOMPETEN,
        Call\/Wa 0858-7795-9720, Digital Marketing Agency Cinere SSP Digital Advertising","ispublic":1,"isfriend":0,"isfamily":0,"url_c":"https:\/\/live.staticflickr.com\/65535\/52502187243_c192a558fe_c.jpg","height_c":800,"width_c":800},{"id":"52501631931","owner":"196936479@N02","secret":"d132678c76","server":"65535","farm":66,"title":"BERKOMPETEN,
        Call\/Wa 0858-7795-9720, Digital Marketing Agency Cimanggis SSP Digital Advertising","ispublic":1,"isfriend":0,"isfamily":0,"url_c":"https:\/\/live.staticflickr.com\/65535\/52501631931_d132678c76_c.jpg","height_c":800,"width_c":800},{"id":"52501629331","owner":"196936479@N02","secret":"753a20b239","server":"65535","farm":66,"title":"BERKOMPETEN,
        Call\/Wa 0858-7795-9720, Digital Marketing Agency Cilodong SSP Digital Advertising","ispublic":1,"isfriend":0,"isfamily":0,"url_c":"https:\/\/live.staticflickr.com\/65535\/52501629331_753a20b239_c.jpg","height_c":800,"width_c":800},{"id":"52501132427","owner":"196936479@N02","secret":"90f7e86bb1","server":"65535","farm":66,"title":"BERKOMPETEN,
        Call\/Wa 0858-7795-9720, Digital Marketing Agency Beji SSP Digital Advertising","ispublic":1,"isfriend":0,"isfamily":0,"url_c":"https:\/\/live.staticflickr.com\/65535\/52501132427_90f7e86bb1_c.jpg","height_c":800,"width_c":800},{"id":"52502091910","owner":"196936479@N02","secret":"096513e400","server":"65535","farm":66,"title":"BERKOMPETEN,
        Call\/Wa 0858-7795-9720, Digital Marketing Agency Depok SSP Digital Advertising","ispublic":1,"isfriend":0,"isfamily":0,"url_c":"https:\/\/live.staticflickr.com\/65535\/52502091910_096513e400_c.jpg","height_c":800,"width_c":800},{"id":"52502087735","owner":"196936479@N02","secret":"5dcc4ea828","server":"65535","farm":66,"title":"BERKOMPETEN,
        Call\/Wa 0858-7795-9720, Digital Marketing Agency Tanggerang Selatan SSP Digital
        Advertising","ispublic":1,"isfriend":0,"isfamily":0,"url_c":"https:\/\/live.staticflickr.com\/65535\/52502087735_5dcc4ea828_c.jpg","height_c":800,"width_c":800},{"id":"52501887444","owner":"196486356@N04","secret":"a6a404f7dc","server":"65535","farm":66,"title":"Slot
        Online Terpercaya terkenal di dalam Indonesia","ispublic":1,"isfriend":0,"isfamily":0},{"id":"52502080465","owner":"196936479@N02","secret":"ec46809afd","server":"65535","farm":66,"title":"BERKOMPETEN,
        Call\/Wa 0858-7795-9720, Digital Marketing Agency Tanggerang SSP Digital Advertising","ispublic":1,"isfriend":0,"isfamily":0,"url_c":"https:\/\/live.staticflickr.com\/65535\/52502080465_ec46809afd_c.jpg","height_c":800,"width_c":800}]},"stat":"ok"}'
  recorded_at: Tue, 15 Nov 2022 15:17:17 GMT
recorded_with: VCR 6.1.0
